{
  "searchApiHost": "https://search-api-service.dla-danf.svc.cluster.local",
  "bagfileApi": "/search/bagfile/features",
  "childBagfileApi": "/search/childbagfile",
  "driveApi": "/search/drive",
  "driveFiltersApi": "/drive_filters",
  "filtersApi": "/filters",
  "filterFeaturesApi": "/filter/features",
  "childBagfileFiltersApi": "/childbagfile_filters",
  "flowRunApi": "/search/flow-run",
  "reportingKpiApi": "/reporting/trips/kpi",
  "reportingTablesSimpleApi": "/reporting/trips/tables/simple",
  "reportingTablesAggregationApi": "/reporting/trips/tables/agg",

  "fileCatalogHost": "https://search-api-service.dla-danf.svc.cluster.local",
  "fileCatalogFileApi": "/file/",

  "dataTransferHost": "https://data-transfer-api-athena.rd.corpintra.net",
  "dataTransferApi": "/v2/transfers",
  "dataTransferSearchApi": "/v2/transfers/status/search",
  "dataTransferLatestIngestApi": "/ingest/latest",
  "dataTransferSearchIngestApi": "/ingest/status/search",
  "dataTransferHealth": "/actuator/health",

  "dataHandlerApiHost": "https://data-handler-api-service.dla-danf.svc.cluster.local",
  "reprocessingApi": "/files/reprocess",

  "host": "https://danf-ui.us624.corpintra.net",
  "authCallbackUrl": "/callback",
  "authClientID": "AUTH_CLIENT_ID",
  "authClientSecret": "AUTH_CLIENT_SECRET",
  "sessionClientSecret": "SESSION_CLIENT_SECRET",

  "auth0Domain": "dev-gp7vuud4.eu.auth0.com",

  "authGASDomain": "https://sso.daimler.com",
  "authGASLogoutUrl": "/idp/startSLO.ping",
  "authGASAuthEndpoint": "/as/authorization.oauth2",
  "authGASTokenEndpoint": "/as/token.oauth2",
  "authGASUserEndpoint": "/idp/userinfo.openid",
  "authGASJWKSEndpoint": "/pf/JWKS",

  "redisHost": "redis-ui.dla-danf.svc.cluster.local",
  "redisPort": 6380,
  "redisKey": "REDIS_KEY",
  "redisEncryptionKey": "REDIS_ENCRYPTION_KEY"
}