{
    "$schema": "https://schema.management.azure.com/schemas/2015-01-01/deploymentParameters.json#",
    "contentVersion": "1.0.0.0",
    "parameters": {
        "alertName": {
            "value": "dla-failingsteps-az-alert-qa"
        },
        "alertDescription": {
            "value": "At least one processing step failed within the last 4 hours in the Azure QA cluster"
        },
        "logQuery": {
            "value": "let end=now();\nlet start=end - 4h;\nrequests\n| union dependencies\n| where timestamp > start and timestamp <= end\n| where client_CountryOrRegion == \"Netherlands\"\n| where name in (\"extract\", \"strip\", \"split\", \"split-subprocess\", \"strip-subprocess\", \"exporter-cv1\", \"exporter-lidar\", \"cleanup\")\n| where success == \"False\"\n| join kind= inner (\n    requests\n    | where client_CountryOrRegion == \"Netherlands\"\n    | where name == \"extract\"\n    | summarize customDimensions=any(customDimensions) by operation_Id\n    | project operation_Id, bagfile_size=customDimensions.bagfile_size\n) on operation_Id\n| join kind= inner (\n    requests\n    | where client_CountryOrRegion == \"Netherlands\"\n    | where name == \"launch_kubeflow\"\n    | summarize customDimensions=any(customDimensions) by operation_Id\n    | project operation_Id, bagfile_guid=tostring(customDimensions.bagfile_guid), bagfile_path=tostring(customDimensions.bagfile_path)\n) on operation_Id \n| extend duration_min = round((duration / 1000.0 / 60.0), 2)\n| extend processed_mb_per_second=(bagfile_size / 1000.0 / 1000.0) / (duration / 1000.0)\n| project timestamp, name, error=customDimensions.fatalError, customDimensions, operation_Id, pod=cloud_RoleInstance, bagfile_guid, bagfile_path, duration_min\n| sort by bagfile_guid, name"
        },
        "applicationInsightsName": {
            "value": "dla-monitor-ai-qa"
        },
        "evaluationFrequency": {
            "value": 240
        },
        "evaluationTimeWindow": {
            "value": 240
        },
        "alertSeverity": {
            "value": 3
        },
        "actionGroupName": {
            "value": "dla-azalert-ag-qa"
        },
        "customWebhookPayload": {
            "value": "{\n\"text\": \"@here: #alertrulename fired.\\nWithin the last 4h (#searchqaervalstarttimeutc (UTC) - #searchqaervalendtimeutc (UTC)) #searchresultcount steps or substeps failed in the AZURE QA cluster.\\nDetails: [App Insights link](#linktosearchresults)\"\n}" 
        },
        "threshold": {
            "value": "0"
        }
    }
}