{
    "$schema": "https://schema.management.azure.com/schemas/2015-01-01/deploymentParameters.json#",
    "contentVersion": "1.0.0.0",
    "parameters": {
        "workstreamName": {
            "value": "dla"
        },
        "purpose": {
            "value": "containerregistry"
        },
        "env": {
            "value": "prod"
        },
        "subnetName": {
            "value": "dla-aks-sn-prod"
        },
        "additionalAllowedSubnets": {
            "value": [
                "/subscriptions/a8a74fcb-6159-475d-b21a-c2febdb75165/resourceGroups/baseinfra-network-prod/providers/Microsoft.Network/virtualNetworks/baseinfra-network-vnet-prod/subnets/baseinfra-devops-sn-prod"
            ]
        },
        "ipRules": {
            "value": [               
                {
                    "action": "Allow",
                    "value": "139.15.0.0/16"
                },
                {
                    "action": "Allow",
                    "value": "194.39.218.0/23"
                },
                {
                    "action": "Allow",
                    "value": "193.141.57.0/24"
                },
                {
                    "action": "Allow",
                    "value": "193.108.217.0/24"
                }
            ]
        }
    }
}
