[
  {
    "id": 1,
    "ingestCluster": "SV",
    "carName": "V-456-525",
    "status": "STARTED",
    "progress": 15.15651656156,
    "vin": "WDK12345",
    "startTime": 1611568130261,
    "endTime": null,
    "lastUpdated": 1611568886613,
    "created": 1611568069266,
    "etaSeconds": 86401,
    "size": 15013,
    "errorMessage": null,
    "retryCount": 0,
    "files": [
      {
        "url": "/home/pid1083/.viminfo",
        "size": 15013,
        "target": "/workdir/pid1083/.viminfo"
      }
    ]
  },
  {
    "id": 20,
    "ingestCluster": "VAI",
    "carName": "V-123-523",
    "status": "ERROR",
    "progress": 0.545498761,
    "vin": "WDF00000000010003",
    "startTime": 1611569503286,
    "endTime": 1615283257000,
    "lastUpdated": 1611570951049,
    "created": 1611569457642,
    "etaSeconds": -1,
    "size": 1116893696,
    "errorMessage": "Ingest Id 20: Unexpected error during ingest.\nOozie status: KILLED, oozieID: 0615479-201216123038547-oozie-mapr-W",
    "retryCount": 0,
    "files": [
      {
        "url": "/home/pid1083/sequences/plog/test_ingest_api.dat",
        "size": 1116893696,
        "target": null
      },
      {
        "url": "/home/pid1083/sequences/logs/adgw/ADGW__2021_01_25_10_59_14.log",
        "size": 0,
        "target": null
      }
    ]
  },
  {
    "id": 201,
    "ingestCluster": "SV",
    "carName": "V-123-283",
    "status": "ERROR",
    "progress": 0.156415611,
    "vin": "WDF00000000010003",
    "startTime": 1611569503286,
    "endTime": 1615283257000,
    "lastUpdated": 1611570951049,
    "created": 1611569457642,
    "etaSeconds": -1,
    "size": 1116893696,
    "errorMessage": "Ingest Id 20: Unexpected error during ingest.\nOozie status: KILLED, oozieID: 0615479-201216123038547-oozie-mapr-W",
    "retryCount": 0,
    "files": [
      {
        "url": "/home/pid1083/sequences/plog/test_ingest_api.dat",
        "size": 1116893696,
        "target": "/workdir/pid1083/sequences/plog/test_ingest_api.dat"
      },
      {
        "url": "/home/pid1083/sequences/logs/adgw/ADGW__2021_01_25_10_59_14.log",
        "size": 0,
        "target": "/workdir/pid1083/sequences/logs/adgw/ADGW__2021_01_25_10_59_14.log"
      }
    ]
  },
  {
    "id": 23,
    "ingestCluster": "HKS",
    "carName": "V-424-567",
    "status": "STARTED",
    "progress": 53.15619516489,
    "vin": "WDK12345",
    "startTime": 1611571243283,
    "endTime": null,
    "lastUpdated": 1611571829256,
    "created": 1611571198266,
    "etaSeconds": 7201,
    "size": 15121,
    "errorMessage": null,
    "retryCount": 0,
    "files": [
      {
        "url": "/home/pid1083/.viminfo",
        "size": 15121,
        "target": "/workdir/pid1083/.viminfo"
      }
    ]
  },
  {
    "id": 34,
    "ingestCluster": "HKS",
    "carName": "V-424-567",
    "status": "COMPLETED",
    "progress": 100.0,
    "vin": "WDK12345",
    "startTime": 1611571143283,
    "endTime": 1615283257000,
    "lastUpdated": 1611571145283,
    "created": 1611571143283,
    "etaSeconds": -1,
    "size": 1423,
    "errorMessage": null,
    "retryCount": 0,
    "files": [
      {
        "url": "/home/pid1083/.viminfo",
        "size": 15121,
        "target": "/workdir/pid1083/.viminfo"
      }
    ]
  },
  {
    "id": 25,
    "ingestCluster": "VAI",
    "carName": "V-820-234",
    "status": "COMPLETED",
    "progress": 100.0,
    "vin": "WDF00000000010003",
    "startTime": 1611571843283,
    "endTime": 1615283257000,
    "lastUpdated": 1611571896581,
    "created": 1611571810973,
    "etaSeconds": -1,
    "size": 1116893696,
    "errorMessage": null,
    "retryCount": 0,
    "files": [
      {
        "url": "/home/pid1083/sequences/plog/test_ingest_api.dat",
        "size": 1116893696,
        "target": "/workdir/pid1083/sequences/plog/test_ingest_api.dat"
      },
      {
        "url": "/home/pid1083/sequences/logs/adgw/ADGW__2021_01_25_10_59_14.log",
        "size": 0,
        "target": "/workdir/pid1083/sequences/logs/adgw/ADGW__2021_01_25_10_59_14.log"
      }
    ]
  },
  {
    "id": 251,
    "ingestCluster": "VAI",
    "carName": "V-123-234",
    "status": "COMPLETED",
    "progress": 100.0,
    "vin": "WDF00000000010003",
    "startTime": 1611571843283,
    "endTime": 1611571896580,
    "lastUpdated": 1611571896581,
    "created": 1611571810973,
    "etaSeconds": -1,
    "size": 1116893696,
    "errorMessage": null,
    "retryCount": 0,
    "files": [
      {
        "url": "/home/pid1083/sequences/plog/test_ingest_api.dat",
        "size": 1116893696,
        "target": "/workdir/pid1083/sequences/plog/test_ingest_api.dat"
      },
      {
        "url": "/home/pid1083/sequences/logs/adgw/ADGW__2021_01_25_10_59_14.log",
        "size": 0,
        "target": "/workdir/pid1083/sequences/logs/adgw/ADGW__2021_01_25_10_59_14.log"
      }
    ]
  },
  {
    "id": 28,
    "ingestCluster": "SV",
    "carName": "V-815-234",
    "status": "COMPLETED",
    "progress": 100.0,
    "vin": "WDF00000000010003",
    "startTime": 1611572503280,
    "endTime": 1611572556690,
    "lastUpdated": 1611572556691,
    "created": 1611572449313,
    "etaSeconds": -1,
    "size": 0,
    "errorMessage": null,
    "retryCount": 0,
    "files": [
      {
        "url": "/home/pid1083/sequences/logs/adgw/ADGW__2021_01_25_11_59_16.log",
        "size": 0,
        "target": "/workdir/pid1083/sequences/logs/adgw/ADGW__2021_01_25_11_59_16.log"
      }
    ]
  },
  {
    "id": 30,
    "ingestCluster": "VAI",
    "carName": "V-123-921",
    "status": "COMPLETED",
    "progress": 100.0,
    "vin": "WDF00000000010003",
    "startTime": 1611576103294,
    "endTime": 1611576156990,
    "lastUpdated": 1611576156991,
    "created": 1611576049347,
    "etaSeconds": -1,
    "size": 0,
    "errorMessage": null,
    "retryCount": 0,
    "files": [
      {
        "url": "/home/pid1083/sequences/logs/adgw/ADGW__2021_01_25_12_59_18.log",
        "size": 0,
        "target": "/workdir/pid1083/sequences/logs/adgw/ADGW__2021_01_25_12_59_18.log"
      }
    ]
  },
  {
    "id": 32,
    "ingestCluster": "VAI",
    "carName": "V-623-234",
    "status": "COMPLETED",
    "progress": 100.0,
    "vin": "WDF00000000010003",
    "startTime": 1611579703467,
    "endTime": 1611579809942,
    "lastUpdated": 1611579809943,
    "created": 1611579648468,
    "etaSeconds": -1,
    "size": 0,
    "errorMessage": null,
    "retryCount": 0,
    "files": [
      {
        "url": "/home/pid1083/sequences/logs/adgw/ADGW__2021_01_25_13_59_20.log",
        "size": 0,
        "target": "/workdir/pid1083/sequences/logs/adgw/ADGW__2021_01_25_13_59_20.log"
      }
    ]
  },
  {
    "id": 33,
    "ingestCluster": "VAI",
    "carName": "V-623-234",
    "status": "COMPLETED",
    "progress": 100.0,
    "vin": "WDF00000000010003",
    "startTime": 1611579703414,
    "endTime": 1611579809971,
    "lastUpdated": 1611579809971,
    "created": 1611579703414,
    "etaSeconds": -1,
    "size": 0,
    "errorMessage": null,
    "retryCount": 0,
    "files": [
      {
        "url": "/home/pid1083/sequences/logs/adgw/ADGW__2021_01_25_13_59_20.log",
        "size": 0,
        "target": "/workdir/pid1083/sequences/logs/adgw/ADGW__2021_01_25_13_59_20.log"
      }
    ]
  }
]