{
    "results": {
        "tables": [
            {
                "caption": "Unplanned disengagement details",
                "col_labels": [
                    "VIN",
                    "Date",
                    "Disengagement type",
                    "Disengagement details"
                ],
                "values": [
                    [
                        "0",
                        "15.11.2019",
                        "error",
                        "1"
                    ],
                    [
                        "0",
                        "15.11.2019",
                        "manual",
                        "2"
                    ],
                    [
                        "0",
                        "15.11.2019",
                        "manual",
                        "3"
                    ],
                    [
                        "0",
                        "15.11.2019",
                        "manual",
                        "2"
                    ],
                    [
                        "0",
                        "15.11.2019",
                        "manual",
                        "3"
                    ],
                    [
                        "0",
                        "15.11.2019",
                        "manual",
                        "3"
                    ],
                    [
                        "4",
                        "11.18.2019",
                        "error",
                        "1"
                    ],
                    [
                        "4",
                        "11.18.2019",
                        "manual",
                        "3"
                    ],
                    [
                        "0",
                        "11.18.2019",
                        "error",
                        "1"
                    ],
                    [
                        "4",
                        "11.18.2019",
                        "error",
                        "1"
                    ],
                    [
                        "0",
                        "11.18.2019",
                        "manual",
                        "2"
                    ],
                    [
                        "4",
                        "11.18.2019",
                        "manual",
                        "2"
                    ],
                    [
                        "5",
                        "11.18.2019",
                        "manual",
                        "2"
                    ],
                    [
                        "0",
                        "11.18.2019",
                        "error",
                        "1"
                    ],
                    [
                        "4",
                        "11.19.2019",
                        "error",
                        "1"
                    ],
                    [
                        "5",
                        "11.19.2019",
                        "error",
                        "1"
                    ],
                    [
                        "4",
                        "11.19.2019",
                        "manual",
                        "2"
                    ],
                    [
                        "4",
                        "11.19.2019",
                        "manual",
                        "2"
                    ],
                    [
                        "4",
                        "11.19.2019",
                        "manual",
                        "3"
                    ],
                    [
                        "5",
                        "11.19.2019",
                        "manual",
                        "2"
                    ]
                ],
                "key_value_map":{
                    "0":"WDD2221591A470500",
                    "1":"The planner was not able to generate a valid trajectory within a time cycle. The system asked the operator to take control of the vehicle.",
                    "2":"The operator disengaged the system manually to remain in the operational design domain. This was accomplished by pressing the brake pedal to reduce the velocity of the vehicle.",
                    "3":"The operator disengaged the system manually to remain in the operational design domain. The driver performed a steering manouver to correct the trajectory of the vehicle.",
                    "4":"WDD2221591A470497",
                    "5":"WDD2221591A470796"
                }
            }
        ]
    }
}