[
  {
    "title": "DANF UI is now available in L4!",
    "body": "We are pleased to announce that DANF UI is now available in L4. You can now search for original and alwayson files as well as snippets generated in our DANF processing pipeline. We are working on adapting and expanding all the features that you are already familiar with. If you experience anything strange or just want to give us your feedback, please don’t hesitate to reach out to us: you can find all the relevant links on the Support page.",
    "date": "2021-10-25"
  }
]