{
    "type": "FeatureCollection",
    "crs": {
        "type": "name",
        "properties": {
            "name": "urn:ogc:def:crs:OGC:1.3:CRS84"
        }
    },
    "features": [
        {
            "type": "Feature",
            "properties": {
                "id": "178386877",
                "name": "Deutschland, Europe",
                "country": "DE",
                "state": ""
            },
            "geometry": {
                "type": "MultiPolygon",
                "coordinates": [
                    [
                        [
                            [
                                10.4544285,
                                47.5557972
                            ],
                            [
                                10.8902632,
                                47.537314599999981
                            ],
                            [
                                10.890311,
                                47.5373142
                            ],
                            [
                                10.97185620000001,
                                47.3995768
                            ],
                            [
                                10.971896400000011,
                                47.3995575
                            ],
                            [
                                11.2698596,
                                47.3975676
                            ],
                            [
                                11.2698847,
                                47.3975653
                            ],
                            [
                                11.6361361,
                                47.594537699999989
                            ],
                            [
                                11.6361799,
                                47.5945549
                            ],
                            [
                                12.2030055,
                                47.6064317
                            ],
                            [
                                12.20396140000001,
                                47.6067646
                            ],
                            [
                                12.2566953,
                                47.7429665
                            ],
                            [
                                12.2570286,
                                47.7430345
                            ],
                            [
                                12.4985526,
                                47.6258201
                            ],
                            [
                                12.4991695,
                                47.6251006
                            ],
                            [
                                12.78092,
                                47.6736823
                            ],
                            [
                                12.781165200000014,
                                47.6738182
                            ],
                            [
                                13.0021892,
                                47.4637459
                            ],
                            [
                                13.0036669,
                                47.4633962
                            ],
                            [
                                13.0806453,
                                47.6868584
                            ],
                            [
                                13.0807484,
                                47.6870338
                            ],
                            [
                                12.9053482,
                                47.7233577
                            ],
                            [
                                12.9052681,
                                47.7234383
                            ],
                            [
                                13.0036153,
                                47.8493221
                            ],
                            [
                                13.003360900000013,
                                47.8500223
                            ],
                            [
                                12.7581257,
                                48.126068600000018
                            ],
                            [
                                12.7583107,
                                48.1263522
                            ],
                            [
                                13.40783430000001,
                                48.3721564
                            ],
                            [
                                13.4087679,
                                48.3727453
                            ],
                            [
                                13.4485241,
                                48.562742
                            ],
                            [
                                13.44997830000001,
                                48.563946599999987
                            ],
                            [
                                13.7264554,
                                48.5132264
                            ],
                            [
                                13.727083700000014,
                                48.5130182
                            ],
                            [
                                13.8257673,
                                48.618549699999988
                            ],
                            [
                                13.8257897,
                                48.618576200000014
                            ],
                            [
                                13.737972,
                                48.8859557
                            ],
                            [
                                13.7379384,
                                48.8860115
                            ],
                            [
                                12.6557402,
                                49.434740799999986
                            ],
                            [
                                12.655553,
                                49.4347964
                            ],
                            [
                                12.400907100000014,
                                49.7536021
                            ],
                            [
                                12.4005548,
                                49.7538009
                            ],
                            [
                                12.54832450000001,
                                49.9192549
                            ],
                            [
                                12.5476748,
                                49.920493
                            ],
                            [
                                12.090593,
                                50.2523755
                            ],
                            [
                                12.0905901,
                                50.2523986
                            ],
                            [
                                12.1843194,
                                50.3222433
                            ],
                            [
                                12.1846039,
                                50.322221200000023
                            ],
                            [
                                12.334313700000012,
                                50.1716399
                            ],
                            [
                                12.334373,
                                50.171647199999988
                            ],
                            [
                                12.5121608,
                                50.397095199999988
                            ],
                            [
                                12.5120299,
                                50.3972577
                            ],
                            [
                                12.8189744,
                                50.4602349
                            ],
                            [
                                12.8190333,
                                50.4602915
                            ],
                            [
                                12.9473355,
                                50.4041113
                            ],
                            [
                                12.948091,
                                50.4042512
                            ],
                            [
                                13.545579500000011,
                                50.7113886
                            ],
                            [
                                13.54554050000001,
                                50.7115036
                            ],
                            [
                                14.3879057,
                                50.899189699999987
                            ],
                            [
                                14.3880037,
                                50.8991993
                            ],
                            [
                                14.301727,
                                51.055005100000017
                            ],
                            [
                                14.3021083,
                                51.0550986
                            ],
                            [
                                14.5080046,
                                51.0431692
                            ],
                            [
                                14.5084006,
                                51.0433104
                            ],
                            [
                                14.6190353,
                                50.857956
                            ],
                            [
                                14.6189162,
                                50.857759
                            ],
                            [
                                14.792873,
                                50.8202304
                            ],
                            [
                                14.7929831,
                                50.8199956
                            ],
                            [
                                14.9780511,
                                51.0762876
                            ],
                            [
                                14.9794348,
                                51.077171699999987
                            ],
                            [
                                14.974269,
                                51.441572
                            ],
                            [
                                14.974049,
                                51.442118
                            ],
                            [
                                14.73001830000001,
                                51.5307815
                            ],
                            [
                                14.72941450000001,
                                51.531172
                            ],
                            [
                                14.5903897,
                                51.8204437
                            ],
                            [
                                14.5901069,
                                51.8213615
                            ],
                            [
                                14.75905,
                                52.064865
                            ],
                            [
                                14.759094,
                                52.065383
                            ],
                            [
                                14.5346465,
                                52.3940605
                            ],
                            [
                                14.5343762,
                                52.3949997
                            ],
                            [
                                14.6395476,
                                52.5719246
                            ],
                            [
                                14.6390136,
                                52.5733174
                            ],
                            [
                                14.1233035,
                                52.8367829
                            ],
                            [
                                14.1230052,
                                52.8377648
                            ],
                            [
                                14.449841,
                                53.260722199999989
                            ],
                            [
                                14.4499946,
                                53.261639600000017
                            ],
                            [
                                13.96313,
                                54.6763462
                            ],
                            [
                                13.9463305,
                                54.6899096
                            ],
                            [
                                13.600340100000011,
                                54.8587433
                            ],
                            [
                                13.5456122,
                                54.8732719
                            ],
                            [
                                13.225773199999988,
                                54.8697713
                            ],
                            [
                                13.2022673,
                                54.8667833
                            ],
                            [
                                12.3952475,
                                54.6064075
                            ],
                            [
                                12.3221503,
                                54.5779051
                            ],
                            [
                                12.1980162,
                                54.4085564
                            ],
                            [
                                12.1652063,
                                54.3854011
                            ],
                            [
                                11.6666831,
                                54.3308936
                            ],
                            [
                                11.6443743,
                                54.3307609
                            ],
                            [
                                11.2052087,
                                54.55873740000002
                            ],
                            [
                                11.14132,
                                54.5770711
                            ],
                            [
                                10.6516667,
                                54.511333300000011
                            ],
                            [
                                10.592155,
                                54.5206807
                            ],
                            [
                                10.05155110000001,
                                54.766083499999986
                            ],
                            [
                                9.8943068,
                                54.8417955
                            ],
                            [
                                9.6280128,
                                54.879789
                            ],
                            [
                                9.5918192,
                                54.886993700000012
                            ],
                            [
                                9.2955591,
                                54.803159100000023
                            ],
                            [
                                9.2949392,
                                54.8016748
                            ],
                            [
                                8.623166,
                                54.91269
                            ],
                            [
                                8.555431,
                                54.920839
                            ],
                            [
                                8.477877,
                                55.04663
                            ],
                            [
                                8.472381,
                                55.054718
                            ],
                            [
                                8.161178,
                                55.0828097
                            ],
                            [
                                8.044381,
                                55.099161
                            ],
                            [
                                7.931326,
                                54.7442424
                            ],
                            [
                                7.9324927,
                                54.7349366
                            ],
                            [
                                8.1560751,
                                54.339650799999987
                            ],
                            [
                                8.161408500000011,
                                54.3333173
                            ],
                            [
                                7.862104199999989,
                                54.3939574
                            ],
                            [
                                7.8459377,
                                54.3937351
                            ],
                            [
                                7.594605499999989,
                                54.3184557
                            ],
                            [
                                7.5848834,
                                54.3109
                            ],
                            [
                                7.5301892,
                                54.149063300000016
                            ],
                            [
                                7.53424480000001,
                                54.1399242
                            ],
                            [
                                7.728049400000015,
                                53.9941435
                            ],
                            [
                                7.6978273,
                                53.984087700000011
                            ],
                            [
                                6.742721,
                                53.8661684
                            ],
                            [
                                6.72686,
                                53.86339060000001
                            ],
                            [
                                6.3547787,
                                53.73311
                            ],
                            [
                                6.3460009,
                                53.725332100000024
                            ],
                            [
                                6.412675,
                                53.6042857
                            ],
                            [
                                7.0972859,
                                53.3095805
                            ],
                            [
                                7.1917111,
                                53.3150548
                            ],
                            [
                                7.217411600000013,
                                53.0070661
                            ],
                            [
                                7.2174454,
                                53.0070372
                            ],
                            [
                                7.0556406,
                                52.6443596
                            ],
                            [
                                7.0557287,
                                52.643419799999982
                            ],
                            [
                                6.7527756,
                                52.648147199999983
                            ],
                            [
                                6.7525983,
                                52.648110800000012
                            ],
                            [
                                6.683038300000012,
                                52.5530255
                            ],
                            [
                                6.68088,
                                52.5533174
                            ],
                            [
                                7.0716358,
                                52.3746739
                            ],
                            [
                                7.0721536,
                                52.3736113
                            ],
                            [
                                7.0613408,
                                52.2347939
                            ],
                            [
                                7.0612836,
                                52.2347111
                            ],
                            [
                                6.695511700000011,
                                52.070024
                            ],
                            [
                                6.69466280000001,
                                52.0698004
                            ],
                            [
                                6.82937120000001,
                                51.9653956
                            ],
                            [
                                6.828529,
                                51.9641054
                            ],
                            [
                                6.4073046,
                                51.828042
                            ],
                            [
                                6.407205600000012,
                                51.828019499999989
                            ],
                            [
                                6.1564478,
                                51.9052231
                            ],
                            [
                                6.1562254,
                                51.9052449
                            ],
                            [
                                6.166397,
                                51.842262100000013
                            ],
                            [
                                6.166559900000011,
                                51.840721600000016
                            ],
                            [
                                5.9461397,
                                51.8247027
                            ],
                            [
                                5.945479,
                                51.8242662
                            ],
                            [
                                6.225801900000012,
                                51.361716400000013
                            ],
                            [
                                6.226386699999989,
                                51.360336
                            ],
                            [
                                6.0856172,
                                51.2476261
                            ],
                            [
                                6.0726534,
                                51.2425555
                            ],
                            [
                                6.1665997,
                                51.1619664
                            ],
                            [
                                6.175421899999989,
                                51.158464
                            ],
                            [
                                5.8663722,
                                51.0511162
                            ],
                            [
                                5.8663153,
                                51.051103500000011
                            ],
                            [
                                6.0937261,
                                50.9212307
                            ],
                            [
                                6.0939888,
                                50.9209457
                            ],
                            [
                                5.974951,
                                50.798094599999985
                            ],
                            [
                                5.9748624,
                                50.7980367
                            ],
                            [
                                6.3747617,
                                50.451322299999987
                            ],
                            [
                                6.3751227,
                                50.4503606
                            ],
                            [
                                6.406758100000011,
                                50.3288653
                            ],
                            [
                                6.405421300000013,
                                50.3233149
                            ],
                            [
                                6.1757648,
                                50.235417099999985
                            ],
                            [
                                6.175596100000011,
                                50.2352832
                            ],
                            [
                                6.112257,
                                50.0597973
                            ],
                            [
                                6.1122494,
                                50.0596981
                            ],
                            [
                                6.3212719,
                                49.8386211
                            ],
                            [
                                6.321424500000011,
                                49.838453300000012
                            ],
                            [
                                6.5308132,
                                49.805997800000014
                            ],
                            [
                                6.5308971,
                                49.806009300000014
                            ],
                            [
                                6.366766,
                                49.4699993
                            ],
                            [
                                6.3666821,
                                49.4695988
                            ],
                            [
                                6.5512215,
                                49.425311700000016
                            ],
                            [
                                6.5516915,
                                49.4249798
                            ],
                            [
                                6.7383169,
                                49.163840899999983
                            ],
                            [
                                6.738556800000011,
                                49.1636722
                            ],
                            [
                                6.9381472,
                                49.222449
                            ],
                            [
                                6.9382298,
                                49.2224477
                            ],
                            [
                                7.0516298,
                                49.1131325
                            ],
                            [
                                7.0520348,
                                49.1129465
                            ],
                            [
                                7.2916535,
                                49.115695100000018
                            ],
                            [
                                7.2935556,
                                49.1149892
                            ],
                            [
                                7.4446575,
                                49.1841979
                            ],
                            [
                                7.4457904,
                                49.1842666
                            ],
                            [
                                7.6313055,
                                49.0550412
                            ],
                            [
                                7.631329500000011,
                                49.0549113
                            ],
                            [
                                8.231781,
                                48.967465700000012
                            ],
                            [
                                8.2325219,
                                48.9664472
                            ],
                            [
                                7.8404639,
                                48.6422894
                            ],
                            [
                                7.8393911,
                                48.6409714
                            ],
                            [
                                7.578668,
                                48.122767700000011
                            ],
                            [
                                7.5780768,
                                48.121948
                            ],
                            [
                                7.58981,
                                47.59123360000001
                            ],
                            [
                                7.5890388,
                                47.589896900000014
                            ],
                            [
                                8.462869800000011,
                                47.5720329
                            ],
                            [
                                8.464169699999989,
                                47.572192900000012
                            ],
                            [
                                8.6289299,
                                47.6517343
                            ],
                            [
                                8.6287457,
                                47.6523146
                            ],
                            [
                                8.4046935,
                                47.6980133
                            ],
                            [
                                8.4046286,
                                47.6980454
                            ],
                            [
                                8.6568103,
                                47.8004471
                            ],
                            [
                                8.6568478,
                                47.8004536
                            ],
                            [
                                8.895223400000013,
                                47.6482847
                            ],
                            [
                                8.8964794,
                                47.6479721
                            ],
                            [
                                9.9702307,
                                47.545903400000014
                            ],
                            [
                                9.9704798,
                                47.5458589
                            ],
                            [
                                10.0976359,
                                47.3598561
                            ],
                            [
                                10.099812,
                                47.3547862
                            ],
                            [
                                10.236101599999989,
                                47.3819635
                            ],
                            [
                                10.236185600000015,
                                47.3819213
                            ],
                            [
                                10.1745845,
                                47.2702309
                            ],
                            [
                                10.1783421,
                                47.2701114
                            ],
                            [
                                10.4353311,
                                47.381236
                            ],
                            [
                                10.4367645,
                                47.3803634
                            ],
                            [
                                10.4544285,
                                47.5557972
                            ]
                        ],
                        [
                            [
                                10.4544285,
                                47.5557972
                            ],
                            [
                                10.4544285,
                                47.5557972
                            ],
                            [
                                10.4544285,
                                47.5557972
                            ]
                        ]
                    ],
                    [
                        [
                            [
                                6.1661074,
                                50.6618499
                            ],
                            [
                                6.1661074,
                                50.6618499
                            ],
                            [
                                6.1661074,
                                50.6618499
                            ]
                        ]
                    ],
                    [
                        [
                            [
                                6.1667282,
                                50.643647
                            ],
                            [
                                6.2737329,
                                50.629576399999983
                            ],
                            [
                                6.273832699999989,
                                50.6296703
                            ],
                            [
                                6.1667282,
                                50.643647
                            ]
                        ]
                    ],
                    [
                        [
                            [
                                6.1740833,
                                50.5563913
                            ],
                            [
                                6.1740833,
                                50.5563913
                            ],
                            [
                                6.1740833,
                                50.5563913
                            ]
                        ]
                    ],
                    [
                        [
                            [
                                6.1871642,
                                50.5261652
                            ],
                            [
                                6.1871642,
                                50.5261652
                            ],
                            [
                                6.1871642,
                                50.5261652
                            ]
                        ]
                    ],
                    [
                        [
                            [
                                6.246193700000013,
                                50.597369499999985
                            ],
                            [
                                6.246193700000013,
                                50.597369499999985
                            ],
                            [
                                6.246193700000013,
                                50.597369499999985
                            ]
                        ]
                    ],
                    [
                        [
                            [
                                7.408835299999988,
                                54.136504800000012
                            ],
                            [
                                7.408835400000013,
                                54.00761330000001
                            ],
                            [
                                7.54994570000001,
                                54.0276137
                            ],
                            [
                                7.408835299999988,
                                54.136504800000012
                            ]
                        ]
                    ],
                    [
                        [
                            [
                                8.6585911,
                                47.6913488
                            ],
                            [
                                8.6585911,
                                47.6913488
                            ],
                            [
                                8.6585911,
                                47.6913488
                            ]
                        ]
                    ]
                ]
            }
        }
    ]
}