{
    "disengagement":  {
      "v1": {
        "date_start": "01-01-0001",
        "date_end": "23-08-2018",
        "topics": {
          "engagement_state_topic": "/CalService/instance_0/EgoVehStateInterface",
          "log_request_topic": "/LoggingLogRequestService/instance_0/LogRequestInterface"
        },
        "engagement_handler": "CAL"
      },
      "v2": {
        "date_start": "24-08-2018",
        "date_end": "31-03-2019",
        "topics": {
          "engagement_state_topic": "/cal/CalService/0/EgoVehStateInterface",
          "log_request_topic": "/logging/LoggingLogRequestService/0/LogRequestInterface"
        },
        "engagement_handler": "CAL"
      },
      "v3": {
        "date_start": "01-04-2019",
        "date_end": "31-12-9999",
        "topics": {
          "engagement_state_topic": "/sem/SemSystemStatusService/0/SemSystemStatusInterface",
          "log_request_topic": "/logging/LoggingLogRequestService/0/LogRequestInterface"
        },
        "engagement_handler": "SEM"
      }
    },
    "fallback": {
      "v1": {
        "date_start": "01-01-0001",
        "date_end": "31-12-9999",
        "topics": {
          "fallback_topic": "/planning/CurrentBehaviorActions",
          "engagement_state_topic": "/sem/SemSystemStatusService/0/SemSystemStatusInterface"
        }
      }
    },
    "logbook": {
      "v1": {
        "date_start": "01-01-0001",
        "date_end": "31-12-9999",
        "topics": {
          "logbook_topic": "/logbook/LogbookIssueService/0/LogbookIssueInterface"
        }
      }
    },
    "guest_logbook": {
      "v1": {
        "date_start": "01-01-0001",
        "date_end": "31-12-9999",
        "topics": {
          "logbook_topic": "/logbook/LogbookIssueService/0/LogbookIssueInterface_guest"
        }
      }
    },
    "silent_testing_cv1": {
      "v1": {
        "date_start": "01-01-0001",
        "date_end": "31-12-9999",
        "topics": {
          "silent_testing_cv1_topic": "/stereo/SilentTesting/StereoCameraFront/DetectedObjectsOfInterest"
        }
      }
    },
    "gps": {
        "v1": {
          "date_start": "01-01-0001",
          "date_end": "31-05-2018",
          "topics": {
            "gps_topic": "/CalService/instance_0/GPSInfoInterface"
          }
        },
        "v2": {
          "date_start": "01-06-2018",
          "date_end": "31-07-2018",
          "topics": {
            "gps_topic": "/CalService/instance_0/GpsInfoInterface"
          }
        },
        "v3": {
          "date_start": "01-08-2018",
          "date_end": "31-12-9999",
          "topics": {
            "gps_topic": "/cal/CalService/0/GpsInfoInterface"
          }
        }
    },
    "stereo_cnn": {
      "v1": {
        "date_start": "01-01-0001",
        "date_end": "31-12-9999",
        "topics": {
          "stereo_cnn_topic": "/stereo/StereoBoundingBoxInterfaceService/StereoCameraFront/StereoBoundingBoxInterface"
        }
      }
    },
    "silent_testing_lidar": {
      "v1": {
        "date_start": "01-01-0001",
        "date_end": "31-12-9999",
        "topics": {
          "silent_testing_lidar_topic": "/fusion/MopsLidarStixelPlugin/LidarVeloRoofFL/Debug"
        }
      }
    },
    "silent_testing_traffic_lights": {
      "v1": {
        "date_start": "01-01-0001",
        "date_end": "31-12-9999",
        "topics": {
          "silent_testing_traffic_lights_topic": "/traffic_lights/TrafficLightsSilentTesting/StereoCameraFront/DetectedObjectsOfInterest"
        }
      }
    },
    "silent_testing_mrc": {
      "v1": {
        "date_start": "01-01-0001",
        "date_end": "31-12-9999",
        "topics": {
          "silent_testing_mrc_topic": "/fusion/MopsMrcPlugin/MRCFL1/Debug"
        }
      }
    },
    "annotation": {
      "v1": {
        "date_start": "01-01-0001",
        "date_end": "31-12-9999",
        "topics": {
          "annotation_topic": "/ui/annotation"
        }
      }
    },
    "dynamic_stop_point": {
      "v1": {
        "date_start": "01-01-0001",
        "date_end": "31-12-9999",
        "topics": {
          "engagement_state_topic": "/sem/SemSystemStatusService/0/SemSystemStatusInterface",
          "behavioral_search_tree": "/planning/BehavioralSearchTree"
        }
      }
    }
}
